<?xml version="1.0" standalone="no"?>
<!DOCTYPE svg PUBLIC "-//W3C//DTD SVG 20010904//EN"
 "http://www.w3.org/TR/2001/REC-SVG-20010904/DTD/svg10.dtd">
<svg version="1.0" xmlns="http://www.w3.org/2000/svg"
 width="1024.000000pt" height="1024.000000pt" viewBox="0 0 1024.000000 1024.000000"
 preserveAspectRatio="xMidYMid meet">
<metadata>
Created by potrace 1.14, written by Peter Selinger 2001-2017
</metadata>
<g transform="translate(0.000000,1024.000000) scale(0.100000,-0.100000)"
fill="#000000" stroke="none">
<path d="M0 5120 l0 -5120 5120 0 5120 0 0 5120 0 5120 -5120 0 -5120 0 0
-5120z m4800 3396 c173 -31 313 -101 437 -220 180 -170 260 -346 270 -592 6
-145 -4 -227 -43 -342 -19 -59 -918 -2579 -1005 -2819 l-22 -61 41 -47 c65
-74 87 -140 87 -265 0 -87 -4 -115 -23 -163 -48 -119 -178 -222 -311 -247 -30
-6 -55 -11 -56 -13 -12 -19 -349 -982 -360 -1028 -66 -280 102 -560 384 -643
31 -9 90 -16 135 -16 148 0 259 46 371 152 38 36 85 91 103 121 34 56 42 79
298 797 85 239 168 471 184 515 16 44 49 136 74 205 25 69 189 529 365 1023
177 494 321 902 321 907 0 5 -18 33 -40 62 -59 78 -83 159 -78 267 3 77 7 96
41 163 59 121 155 197 280 222 59 12 60 13 78 62 10 27 110 308 223 624 296
830 302 847 345 919 119 198 310 343 531 403 117 32 327 32 445 0 327 -88 571
-356 636 -700 15 -78 7 -276 -15 -353 -12 -47 -277 -800 -351 -999 -13 -36
-72 -200 -130 -365 -58 -165 -117 -329 -130 -365 -13 -36 -83 -231 -155 -435
-73 -203 -224 -629 -337 -945 -113 -316 -252 -708 -309 -870 -58 -162 -114
-320 -125 -350 -12 -30 -78 -217 -149 -415 -70 -198 -151 -425 -180 -505 -28
-80 -70 -197 -92 -260 -47 -136 -72 -172 -134 -196 -40 -15 -53 -16 -93 -5
-87 23 -145 113 -123 192 5 19 46 135 90 259 44 124 173 484 285 800 113 316
298 836 412 1155 114 319 254 713 311 875 58 162 116 324 129 360 13 36 72
200 130 365 59 165 188 527 287 805 391 1096 359 999 360 1104 3 300 -241 546
-542 546 -163 0 -309 -72 -420 -206 -56 -67 -87 -137 -185 -414 -48 -135 -120
-337 -160 -450 -41 -113 -106 -295 -145 -405 -40 -110 -81 -227 -92 -261 l-21
-61 41 -51 c100 -128 119 -308 47 -452 -62 -121 -174 -201 -316 -224 l-36 -6
-46 -128 c-25 -70 -94 -262 -153 -427 -58 -165 -135 -379 -169 -475 -331 -925
-431 -1206 -455 -1275 -159 -456 -408 -1133 -437 -1185 -108 -198 -295 -348
-518 -416 -80 -25 -106 -28 -240 -28 -176 -1 -242 13 -381 79 -251 120 -426
350 -474 621 -16 91 -8 317 14 399 9 33 30 96 46 140 16 44 93 257 170 473 77
217 142 398 145 403 3 5 -12 31 -34 59 -63 79 -85 148 -85 260 0 75 4 107 23
153 55 138 166 226 332 261 28 6 11 -34 195 481 36 99 78 216 94 260 16 44 54
152 85 240 31 88 69 196 85 240 16 44 59 163 95 265 36 102 79 221 95 265 16
44 49 136 74 205 24 69 112 315 195 546 163 460 178 518 161 646 -12 94 -31
148 -82 226 -99 152 -265 242 -448 242 -149 0 -258 -48 -376 -165 -49 -48 -92
-102 -109 -135 -15 -30 -70 -174 -122 -320 -52 -146 -105 -294 -118 -330 -20
-53 -221 -618 -438 -1230 -24 -69 -72 -201 -105 -295 -67 -187 -495 -1388
-700 -1965 -72 -201 -189 -531 -262 -735 -72 -203 -142 -399 -155 -435 -13
-36 -81 -225 -150 -420 -137 -387 -149 -410 -228 -431 -101 -27 -207 52 -207
154 0 19 40 146 89 283 49 137 127 357 174 489 47 132 201 564 342 960 142
396 272 763 290 815 18 52 63 178 100 280 36 102 104 291 150 420 45 129 128
361 183 515 218 612 265 744 391 1100 73 204 143 399 156 435 13 36 72 200
130 365 143 405 152 429 197 516 116 227 362 405 620 448 80 13 214 12 298 -3z"/>
</g>
</svg>
