<?xml version="1.0" encoding="UTF-8"?>
<svg width="60px" height="60px" viewBox="0 0 60 60" version="1.1" xmlns="http://www.w3.org/2000/svg" xmlns:xlink="http://www.w3.org/1999/xlink">
    <!-- Generator: Sketch 49.2 (51160) - http://www.bohemiancoding.com/sketch -->
    <title>Car Icon</title>
    <desc>Created with Sketch.</desc>
    <defs></defs>
    <g id="Survey" stroke="none" stroke-width="1" fill="none" fill-rule="evenodd">
        <g transform="translate(-1052.000000, -991.000000)" id="All-your-journeys-covered">
            <g transform="translate(543.000000, 913.000000)">
                <g id="Icons" transform="translate(0.000000, 73.000000)">
                    <g id="Car-Sharing" transform="translate(497.000000, 0.000000)">
                        <g id="Car-Icon" transform="translate(7.000000, 0.000000)">
                            <circle id="Oval" fill="#2B6993" cx="35" cy="35" r="30"></circle>
                            <g id="car-icon-1" fill="#FFFFFF">
                                <path d="M46.2502795,31.1494387 L45.3385772,31.1494387 C45.2710437,31.1494387 45.1697434,31.1840388 45.1022099,31.2186389 L44.0554405,31.9106414 L42.4346364,28.173828 C42.1307356,27.4472254 41.4554005,26.9628237 40.6787652,26.9282235 L36.2890872,26.6514226 C35.7825859,26.6168224 35.3098513,26.6168224 34.80335,26.6168224 C34.2968487,26.6168224 33.8241142,26.6168224 33.3176129,26.6514226 L28.9279349,26.9282235 C28.1512996,26.9628237 27.4759645,27.4472254 27.1720637,28.173828 L25.5512595,31.9106414 L24.5044902,31.2186389 C24.4369567,31.1840388 24.3694232,31.1494387 24.2681229,31.1494387 L23.3564206,31.1494387 C23.1200533,31.1494387 22.9512195,31.3224393 22.9512195,31.5646402 L22.9512195,31.7376408 C22.9512195,31.8760413 23.018753,31.9798417 23.0862865,32.0490419 L24.0655224,32.8794449 C24.1330559,32.914045 24.1668226,32.9486451 24.2343561,32.9832453 C24.2681229,32.9832453 24.2681229,32.9832453 24.3018897,32.9832453 C24.3356564,32.9832453 24.4031899,32.9832453 24.4369567,32.9832453 L25.1460585,32.7756445 L25.0447582,33.2254461 C25.0447582,33.2600463 25.0109915,33.2946464 24.9772247,33.2946464 L23.7278548,34.9554523 C23.6603213,35.0246526 23.5927878,35.128453 23.5590211,35.2322533 C23.4239541,35.5090543 23.3564206,35.8204554 23.3901873,36.1664567 L24.0992891,43.6054834 C24.0992891,43.7092837 24.2005894,43.8130841 24.3018897,43.8130841 L26.2941281,43.8130841 C26.3954284,43.8130841 26.4967286,43.7092837 26.4967286,43.6054834 L26.4967286,42.2560785 C26.4967286,42.0138777 26.6993292,41.8062769 26.9356964,41.840877 C26.9356964,41.840877 26.9356964,41.840877 26.9356964,41.840877 L31.933176,42.0830779 C32.4059105,42.117678 32.8786451,42.117678 33.3513796,42.1522782 C34.2968487,42.1868783 35.2760846,42.1868783 36.2215537,42.1522782 C36.6942882,42.1522782 37.1670228,42.117678 37.6397573,42.0830779 L42.6372369,41.840877 C42.6372369,41.840877 42.6372369,41.840877 42.6372369,41.840877 C42.8736041,41.840877 43.0762047,42.0138777 43.0762047,42.2560785 L43.0762047,43.6054834 C43.0762047,43.7092837 43.1775049,43.8130841 43.2788052,43.8130841 L45.2710437,43.8130841 C45.3723439,43.8130841 45.4736442,43.7438839 45.4736442,43.6054834 L46.182746,36.1664567 C46.2165128,35.8550556 46.1489793,35.5090543 46.0139122,35.2322533 C45.9801455,35.128453 45.912612,35.0592527 45.8450785,34.9554523 L44.5957086,33.2946464 C44.5619418,33.2600463 44.5619418,33.2254461 44.5281751,33.2254461 L44.4268748,32.7756445 L45.1359766,32.9832453 C45.1697434,32.9832453 45.2372769,32.9832453 45.2710437,32.9832453 C45.3048104,32.9832453 45.3048104,32.9832453 45.3385772,32.9832453 C45.4061107,32.9832453 45.4736442,32.9486451 45.5074109,32.8794449 L46.4866468,32.0490419 C46.587947,31.9798417 46.6217138,31.8414412 46.6217138,31.7376408 L46.6217138,31.5646402 C46.6554806,31.3224393 46.4866468,31.1494387 46.2502795,31.1494387 Z M28.0162326,38.2424641 C27.2058305,38.2424641 26.5304954,37.5504616 26.5304954,36.7200587 C26.5304954,35.8896557 27.2058305,35.1976532 28.0162326,35.1976532 C28.8266346,35.1976532 29.5019697,35.8896557 29.5019697,36.7200587 C29.5019697,37.5504616 28.8266346,38.2424641 28.0162326,38.2424641 Z M34.8371168,32.4296433 L27.1045302,32.4296433 C26.8006294,32.4296433 26.5980289,32.083642 26.7330959,31.806841 L28.4889671,28.2430283 C28.5565006,28.1046278 28.6915676,28.0354275 28.8266346,28.0008274 L33.1487791,27.7586265 C34.263082,27.6894263 35.3773848,27.6894263 36.5254545,27.7586265 L40.8138322,28.0008274 C40.9488992,28.0008274 41.0839662,28.1046278 41.1514997,28.2430283 L42.9411377,31.806841 C43.0762047,32.083642 42.8736041,32.4296433 42.5697034,32.4296433 L34.8371168,32.4296433 Z M41.658001,38.2424641 C40.8475989,38.2424641 40.1722639,37.5504616 40.1722639,36.7200587 C40.1722639,35.8896557 40.8475989,35.1976532 41.658001,35.1976532 C42.4684031,35.1976532 43.1437382,35.8896557 43.1437382,36.7200587 C43.1437382,37.5504616 42.4684031,38.2424641 41.658001,38.2424641 Z" id="Shape" fill-rule="nonzero"></path>
                                <g id="Arrows" transform="translate(35.000000, 35.000000) rotate(-45.000000) translate(-35.000000, -35.000000) translate(9.000000, 12.000000)">
                                    <path d="M47.7290206,20.635514 L51.6620457,20.635514 L46.3774928,25.364486 L41.09294,20.635514 L45.1840036,20.635514 C44.3270552,10.5188995 35.9799811,2.57943925 25.8093543,2.57943925 C16.5208563,2.57943925 8.75330452,9.20139879 6.82302067,18.0560748 L4.31245218,18.0560748 L4.22764228,18.0775001 C6.1904052,7.77734417 15.106721,0 25.8093543,0 C37.3816452,0 46.8655249,9.09261328 47.7290206,20.635514 Z" id="Combined-Shape"></path>
                                    <path d="M43.5013783,41.271028 L47.4344034,41.271028 L42.1498505,46 L36.8652977,41.271028 L40.9563614,41.271028 C40.0994129,31.1544135 31.7523388,23.2149533 21.581712,23.2149533 C12.293214,23.2149533 4.52566224,29.8369128 2.5953784,38.6915888 L0.0848098987,38.6915888 L-3.55271368e-15,38.7130142 C1.96276292,28.4128582 10.8790787,20.635514 21.581712,20.635514 C33.1540029,20.635514 42.6378826,29.7281273 43.5013783,41.271028 Z" id="Combined-Shape-Copy" transform="translate(23.717202, 33.317757) scale(-1, -1) translate(-23.717202, -33.317757) "></path>
                                </g>
                            </g>
                        </g>
                    </g>
                </g>
            </g>
        </g>
    </g>
</svg>